Temperature (K)	Pressure (MPa)	Density (l, mol/l)	Volume (l, l/mol)	Internal Energy (l, kJ/mol)	Enthalpy (l, kJ/mol)	Entropy (l, J/mol*K)	Cv (l, J/mol*K)	Cp (l, J/mol*K)	Sound Spd. (l, m/s)	Joule-Thomson (l, K/MPa)	Viscosity (l, uPa*s)	Therm. Cond. (l, W/m*K)	Surf. Tension (l, N/m)	Density (v, mol/l)	Volume (v, l/mol)	Internal Energy (v, kJ/mol)	Enthalpy (v, kJ/mol)	Entropy (v, J/mol*K)	Cv (v, J/mol*K)	Cp (v, J/mol*K)	Sound Spd. (v, m/s)	Joule-Thomson (v, K/MPa)	Viscosity (v, uPa*s)	Therm. Cond. (v, W/m*K)
333.21	0.020000	54.572	0.018324	4.5291	4.5295	14.989	71.635	75.397	1550.9	-0.20063	465.97	0.65440	0.066228	0.0072580	137.78	44.245	47.001	142.45	26.645	35.398	449.54	123.07	10.936	0.021192
335.68	0.022400	54.501	0.018348	4.7154	4.7158	15.546	71.409	75.417	1552.2	-0.19927	449.11	0.65674	0.065799	0.0080724	123.88	44.303	47.078	141.74	26.707	35.487	451.06	117.53	11.016	0.021404
337.93	0.024800	54.434	0.018371	4.8854	4.8859	16.051	71.200	75.437	1553.2	-0.19803	434.59	0.65877	0.065404	0.0088812	112.60	44.356	47.148	141.11	26.765	35.572	452.43	112.82	11.090	0.021601
340.01	0.027200	54.370	0.018392	5.0421	5.0426	16.513	71.007	75.456	1553.9	-0.19689	421.91	0.66056	0.065038	0.0096849	103.25	44.404	47.213	140.54	26.821	35.653	453.69	108.75	11.157	0.021785
341.94	0.029600	54.311	0.018413	5.1875	5.1881	16.940	70.828	75.475	1554.4	-0.19584	410.68	0.66213	0.064697	0.010484	95.384	44.449	47.272	140.02	26.875	35.731	454.85	105.18	11.221	0.021958
343.74	0.032000	54.254	0.018432	5.3233	5.3239	17.336	70.659	75.494	1554.7	-0.19485	400.65	0.66355	0.064376	0.011279	88.662	44.491	47.328	139.53	26.926	35.807	455.92	102.03	11.280	0.022121
345.42	0.034400	54.200	0.018450	5.4508	5.4514	17.706	70.501	75.513	1554.9	-0.19392	391.61	0.66482	0.064074	0.012070	82.852	44.530	47.380	139.09	26.976	35.880	456.92	99.205	11.335	0.022277
347.02	0.036800	54.148	0.018468	5.5709	5.5716	18.053	70.351	75.531	1555.0	-0.19305	383.40	0.66597	0.063788	0.012857	77.779	44.566	47.428	138.67	27.024	35.952	457.85	96.662	11.388	0.022425
348.52	0.039200	54.098	0.018485	5.6847	5.6854	18.380	70.209	75.549	1554.9	-0.19222	375.89	0.66701	0.063516	0.013641	73.309	44.601	47.474	138.28	27.071	36.021	458.73	94.354	11.438	0.022567
349.95	0.041600	54.050	0.018501	5.7928	5.7936	18.689	70.074	75.566	1554.8	-0.19143	368.99	0.66797	0.063256	0.014422	69.340	44.633	47.518	137.92	27.116	36.089	459.56	92.246	11.486	0.022702
351.32	0.044000	54.004	0.018517	5.8958	5.8966	18.983	69.946	75.584	1554.7	-0.19067	362.62	0.66885	0.063008	0.015199	65.792	44.664	47.559	137.57	27.161	36.155	460.34	90.312	11.531	0.022833
352.62	0.046400	53.960	0.018532	5.9941	5.9950	19.263	69.823	75.601	1554.4	-0.18995	356.71	0.66966	0.062771	0.015975	62.600	44.694	47.599	137.25	27.204	36.219	461.09	88.527	11.575	0.022959
353.86	0.048800	53.917	0.018547	6.0884	6.0893	19.529	69.705	75.617	1554.2	-0.18926	351.20	0.67041	0.062542	0.016747	59.713	44.722	47.636	136.94	27.246	36.283	461.79	86.873	11.616	0.023081
355.06	0.051200	53.875	0.018562	6.1788	6.1797	19.784	69.591	75.634	1553.8	-0.18859	346.05	0.67111	0.062322	0.017517	57.088	44.749	47.672	136.64	27.288	36.345	462.47	85.334	11.656	0.023198
356.21	0.053600	53.834	0.018576	6.2657	6.2667	20.029	69.483	75.651	1553.5	-0.18795	341.22	0.67176	0.062110	0.018284	54.692	44.775	47.706	136.36	27.329	36.406	463.12	83.898	11.695	0.023312
357.32	0.056000	53.795	0.018589	6.3495	6.3505	20.264	69.378	75.667	1553.1	-0.18733	336.68	0.67237	0.061905	0.019049	52.495	44.800	47.740	136.10	27.369	36.466	463.74	82.553	11.732	0.023423
358.38	0.058400	53.757	0.018602	6.4303	6.4314	20.490	69.277	75.683	1552.7	-0.18673	332.40	0.67293	0.061707	0.019812	50.473	44.824	47.771	135.84	27.408	36.525	464.33	81.290	11.768	0.023530
359.42	0.060800	53.719	0.018615	6.5084	6.5096	20.707	69.179	75.699	1552.3	-0.18614	328.35	0.67346	0.061515	0.020573	48.606	44.847	47.802	135.59	27.447	36.584	464.90	80.100	11.803	0.023635
360.41	0.063200	53.683	0.018628	6.5840	6.5852	20.917	69.084	75.714	1551.8	-0.18558	324.52	0.67396	0.061329	0.021332	46.877	44.869	47.832	135.36	27.485	36.641	465.45	78.977	11.837	0.023737
361.38	0.065600	53.648	0.018640	6.6573	6.6585	21.120	68.993	75.730	1551.3	-0.18503	320.87	0.67443	0.061148	0.022090	45.270	44.890	47.860	135.13	27.522	36.698	465.98	77.914	11.869	0.023836
362.32	0.068000	53.613	0.018652	6.7283	6.7296	21.317	68.904	75.745	1550.8	-0.18450	317.41	0.67487	0.060972	0.022845	43.774	44.911	47.888	134.91	27.559	36.754	466.49	76.907	11.901	0.023933
363.23	0.070400	53.579	0.018664	6.7973	6.7987	21.507	68.818	75.761	1550.3	-0.18398	314.11	0.67529	0.060801	0.023598	42.376	44.931	47.915	134.70	27.595	36.809	466.98	75.949	11.932	0.024028
364.12	0.072800	53.546	0.018676	6.8644	6.8658	21.691	68.734	75.776	1549.8	-0.18347	310.95	0.67568	0.060634	0.024350	41.067	44.951	47.940	134.50	27.631	36.863	467.46	75.038	11.962	0.024121
364.98	0.075200	53.513	0.018687	6.9297	6.9311	21.870	68.653	75.791	1549.3	-0.18297	307.94	0.67605	0.060471	0.025100	39.840	44.970	47.966	134.30	27.667	36.917	467.92	74.169	11.991	0.024211
365.82	0.077600	53.482	0.018698	6.9933	6.9947	22.044	68.574	75.805	1548.8	-0.18249	305.05	0.67641	0.060313	0.025849	38.686	44.988	47.990	134.11	27.702	36.971	468.37	73.339	12.019	0.024300
366.64	0.080000	53.451	0.018709	7.0553	7.0568	22.214	68.496	75.820	1548.2	-0.18202	302.29	0.67674	0.060158	0.026596	37.599	45.006	48.014	133.92	27.736	37.023	468.81	72.545	12.047	0.024387
367.43	0.082400	53.420	0.018720	7.1157	7.1173	22.378	68.421	75.835	1547.7	-0.18155	299.63	0.67706	0.060006	0.027342	36.574	45.023	48.037	133.74	27.770	37.076	469.23	71.785	12.074	0.024472
368.21	0.084800	53.390	0.018730	7.1748	7.1763	22.539	68.348	75.849	1547.1	-0.18110	297.08	0.67736	0.059858	0.028086	35.605	45.040	48.060	133.57	27.804	37.127	469.64	71.056	12.101	0.024556
368.97	0.087200	53.361	0.018740	7.2324	7.2341	22.695	68.276	75.864	1546.6	-0.18066	294.62	0.67765	0.059713	0.028829	34.687	45.057	48.081	133.40	27.837	37.178	470.04	70.355	12.127	0.024638
369.71	0.089600	53.332	0.018751	7.2888	7.2905	22.848	68.207	75.878	1546.0	-0.18022	292.25	0.67792	0.059571	0.029570	33.818	45.073	48.103	133.24	27.871	37.229	470.42	69.682	12.152	0.024718
370.44	0.092000	53.303	0.018761	7.3439	7.3457	22.997	68.138	75.892	1545.4	-0.17979	289.97	0.67818	0.059432	0.030311	32.992	45.089	48.124	133.08	27.903	37.279	470.80	69.034	12.177	0.024798
371.15	0.094400	53.276	0.018770	7.3979	7.3997	23.142	68.072	75.906	1544.8	-0.17938	287.77	0.67843	0.059296	0.031050	32.207	45.104	48.144	132.92	27.936	37.329	471.17	68.410	12.201	0.024876
371.85	0.096800	53.248	0.018780	7.4507	7.4526	23.285	68.006	75.920	1544.3	-0.17896	285.64	0.67867	0.059162	0.031787	31.459	45.119	48.164	132.77	27.968	37.379	471.53	67.808	12.225	0.024952
372.53	0.099200	53.221	0.018790	7.5025	7.5044	23.424	67.942	75.934	1543.7	-0.17856	283.58	0.67889	0.059031	0.032524	30.747	45.133	48.184	132.62	28.000	37.428	471.88	67.227	12.248	0.025028
373.20	0.10160	53.194	0.018799	7.5533	7.5552	23.560	67.880	75.948	1543.1	-0.17816	281.59	0.67911	0.058902	0.033259	30.067	45.148	48.203	132.48	28.031	37.476	472.22	66.666	12.271	0.025102
373.86	0.10400	53.168	0.018808	7.6031	7.6050	23.693	67.818	75.961	1542.5	-0.17777	279.67	0.67931	0.058776	0.033993	29.417	45.162	48.221	132.33	28.062	37.524	472.55	66.123	12.293	0.025175
374.50	0.10640	53.143	0.018817	7.6520	7.6540	23.824	67.758	75.975	1541.9	-0.17738	277.80	0.67951	0.058651	0.034727	28.796	45.175	48.239	132.20	28.093	37.572	472.88	65.597	12.315	0.025247
375.13	0.10880	53.117	0.018826	7.6999	7.7020	23.952	67.699	75.988	1541.4	-0.17700	275.98	0.67970	0.058529	0.035459	28.202	45.189	48.257	132.06	28.124	37.620	473.20	65.088	12.337	0.025318
375.75	0.11120	53.092	0.018835	7.7470	7.7491	24.077	67.642	76.002	1540.8	-0.17663	274.22	0.67988	0.058409	0.036190	27.632	45.202	48.275	131.93	28.155	37.667	473.51	64.594	12.358	0.025388
376.36	0.11360	53.067	0.018844	7.7933	7.7954	24.200	67.585	76.015	1540.2	-0.17626	272.52	0.68005	0.058291	0.036920	27.086	45.215	48.292	131.80	28.185	37.714	473.82	64.116	12.379	0.025457
376.96	0.11600	53.043	0.018853	7.8388	7.8410	24.321	67.529	76.028	1539.6	-0.17590	270.86	0.68022	0.058175	0.037649	26.561	45.228	48.309	131.67	28.215	37.760	474.11	63.651	12.399	0.025525
377.55	0.11840	53.019	0.018861	7.8835	7.8857	24.440	67.474	76.041	1539.0	-0.17554	269.24	0.68038	0.058060	0.038377	26.057	45.240	48.325	131.55	28.245	37.806	474.41	63.199	12.420	0.025592
378.13	0.12080	52.995	0.018870	7.9275	7.9298	24.556	67.421	76.055	1538.4	-0.17519	267.67	0.68053	0.057947	0.039104	25.573	45.252	48.341	131.43	28.274	37.852	474.69	62.761	12.439	0.025658
378.69	0.12320	52.972	0.018878	7.9708	7.9731	24.670	67.368	76.068	1537.8	-0.17484	266.14	0.68068	0.057836	0.039830	25.107	45.264	48.357	131.31	28.303	37.898	474.97	62.334	12.459	0.025724
379.25	0.12560	52.949	0.018886	8.0134	8.0157	24.783	67.316	76.081	1537.2	-0.17450	264.65	0.68082	0.057727	0.040555	24.658	45.276	48.373	131.19	28.333	37.943	475.25	61.919	12.478	0.025789
379.81	0.12800	52.926	0.018894	8.0553	8.0577	24.893	67.265	76.093	1536.7	-0.17416	263.20	0.68095	0.057619	0.041280	24.225	45.287	48.388	131.08	28.361	37.988	475.52	61.514	12.497	0.025852
380.35	0.13040	52.903	0.018902	8.0966	8.0991	25.002	67.215	76.106	1536.1	-0.17382	261.78	0.68108	0.057513	0.042003	23.808	45.299	48.403	130.97	28.390	38.033	475.78	61.121	12.516	0.025916
380.88	0.13280	52.881	0.018910	8.1373	8.1398	25.109	67.165	76.119	1535.5	-0.17349	260.40	0.68120	0.057408	0.042726	23.405	45.310	48.418	130.86	28.419	38.078	476.04	60.737	12.534	0.025978
381.41	0.13520	52.859	0.018918	8.1774	8.1799	25.214	67.117	76.132	1534.9	-0.17317	259.06	0.68132	0.057304	0.043448	23.016	45.321	48.432	130.75	28.447	38.122	476.30	60.362	12.552	0.026040
381.93	0.13760	52.837	0.018926	8.2169	8.2195	25.318	67.069	76.144	1534.3	-0.17284	257.74	0.68143	0.057202	0.044169	22.640	45.331	48.447	130.64	28.475	38.166	476.55	59.997	12.570	0.026100
382.44	0.14000	52.816	0.018934	8.2559	8.2585	25.420	67.022	76.157	1533.7	-0.17252	256.46	0.68154	0.057102	0.044889	22.277	45.342	48.461	130.54	28.503	38.210	476.80	59.640	12.588	0.026161
382.95	0.14240	52.794	0.018941	8.2943	8.2970	25.520	66.975	76.169	1533.2	-0.17221	255.20	0.68165	0.057002	0.045608	21.926	45.352	48.475	130.44	28.531	38.253	477.04	59.292	12.605	0.026220
383.44	0.14480	52.773	0.018949	8.3322	8.3349	25.619	66.929	76.182	1532.6	-0.17189	253.98	0.68175	0.056904	0.046327	21.586	45.363	48.488	130.34	28.559	38.297	477.27	58.952	12.622	0.026279
383.93	0.14720	52.752	0.018956	8.3696	8.3724	25.716	66.884	76.194	1532.0	-0.17158	252.78	0.68184	0.056807	0.047045	21.256	45.373	48.502	130.24	28.586	38.340	477.51	58.620	12.639	0.026338
384.42	0.14960	52.732	0.018964	8.4065	8.4093	25.812	66.840	76.207	1531.4	-0.17128	251.60	0.68194	0.056711	0.047762	20.937	45.383	48.515	130.14	28.614	38.383	477.74	58.295	12.656	0.026395
384.90	0.15200	52.711	0.018971	8.4429	8.4458	25.907	66.796	76.219	1530.8	-0.17098	250.45	0.68203	0.056617	0.048479	20.628	45.392	48.528	130.04	28.641	38.425	477.96	57.977	12.672	0.026453
385.37	0.15440	52.691	0.018979	8.4788	8.4818	26.000	66.753	76.231	1530.3	-0.17068	249.33	0.68211	0.056523	0.049194	20.328	45.402	48.541	129.95	28.668	38.468	478.18	57.666	12.688	0.026509
385.84	0.15680	52.671	0.018986	8.5143	8.5173	26.093	66.710	76.243	1529.7	-0.17038	248.23	0.68219	0.056431	0.049909	20.036	45.412	48.553	129.86	28.695	38.510	478.40	57.361	12.704	0.026565
386.30	0.15920	52.651	0.018993	8.5494	8.5524	26.183	66.668	76.255	1529.1	-0.17009	247.15	0.68227	0.056340	0.050624	19.754	45.421	48.566	129.77	28.721	38.552	478.62	57.063	12.720	0.026621
386.75	0.16160	52.632	0.019000	8.5841	8.5871	26.273	66.627	76.267	1528.5	-0.16979	246.09	0.68235	0.056249	0.051337	19.479	45.430	48.578	129.68	28.748	38.594	478.83	56.771	12.736	0.026676
387.20	0.16400	52.612	0.019007	8.6183	8.6214	26.361	66.586	76.279	1528.0	-0.16951	245.06	0.68242	0.056160	0.052050	19.212	45.439	48.590	129.59	28.775	38.636	479.04	56.485	12.751	0.026730
387.64	0.16640	52.593	0.019014	8.6521	8.6553	26.449	66.545	76.291	1527.4	-0.16922	244.04	0.68249	0.056072	0.052763	18.953	45.448	48.602	129.50	28.801	38.677	479.24	56.204	12.766	0.026784
388.08	0.16880	52.574	0.019021	8.6855	8.6887	26.535	66.506	76.303	1526.8	-0.16894	243.05	0.68256	0.055984	0.053475	18.700	45.457	48.614	129.41	28.827	38.718	479.45	55.929	12.781	0.026838
388.51	0.17120	52.555	0.019028	8.7186	8.7218	26.620	66.466	76.315	1526.3	-0.16866	242.07	0.68262	0.055898	0.054186	18.455	45.466	48.625	129.33	28.853	38.759	479.64	55.659	12.796	0.026891
388.94	0.17360	52.536	0.019034	8.7513	8.7546	26.704	66.427	76.327	1525.7	-0.16838	241.11	0.68268	0.055812	0.054896	18.216	45.474	48.637	129.24	28.879	38.800	479.84	55.394	12.811	0.026943
389.37	0.17600	52.518	0.019041	8.7836	8.7869	26.787	66.389	76.339	1525.1	-0.16810	240.17	0.68274	0.055728	0.055606	17.984	45.483	48.648	129.16	28.905	38.841	480.03	55.135	12.826	0.026995
389.78	0.17840	52.500	0.019048	8.8155	8.8189	26.869	66.351	76.351	1524.6	-0.16783	239.24	0.68280	0.055644	0.056315	17.757	45.491	48.659	129.08	28.931	38.882	480.22	54.880	12.840	0.027047
390.20	0.18080	52.481	0.019054	8.8471	8.8506	26.950	66.313	76.362	1524.0	-0.16756	238.34	0.68285	0.055561	0.057024	17.537	45.500	48.670	129.00	28.956	38.922	480.41	54.629	12.854	0.027098
390.61	0.18320	52.463	0.019061	8.8784	8.8819	27.030	66.276	76.374	1523.5	-0.16729	237.44	0.68290	0.055479	0.057732	17.321	45.508	48.681	128.92	28.981	38.963	480.60	54.383	12.869	0.027149
391.01	0.18560	52.445	0.019067	8.9094	8.9129	27.110	66.240	76.385	1522.9	-0.16702	236.57	0.68295	0.055398	0.058440	17.112	45.516	48.692	128.84	29.007	39.003	480.78	54.142	12.883	0.027199
391.42	0.18800	52.428	0.019074	8.9400	8.9436	27.188	66.204	76.397	1522.3	-0.16676	235.71	0.68300	0.055317	0.059146	16.907	45.524	48.702	128.76	29.032	39.043	480.96	53.904	12.896	0.027249
391.81	0.19040	52.410	0.019080	8.9703	8.9739	27.265	66.168	76.409	1521.8	-0.16650	234.86	0.68305	0.055237	0.059853	16.708	45.532	48.713	128.69	29.057	39.082	481.14	53.671	12.910	0.027299
392.20	0.19280	52.393	0.019087	9.0003	9.0040	27.342	66.132	76.420	1521.2	-0.16624	234.03	0.68309	0.055158	0.060559	16.513	45.540	48.723	128.61	29.082	39.122	481.31	53.441	12.924	0.027348
392.59	0.19520	52.375	0.019093	9.0300	9.0337	27.418	66.097	76.431	1520.7	-0.16598	233.21	0.68313	0.055080	0.061264	16.323	45.547	48.733	128.54	29.107	39.162	481.49	53.216	12.937	0.027397
392.98	0.19760	52.358	0.019099	9.0594	9.0632	27.492	66.063	76.443	1520.1	-0.16572	232.41	0.68317	0.055003	0.061969	16.137	45.555	48.743	128.47	29.132	39.201	481.66	52.994	12.950	0.027445
393.36	0.20000	52.341	0.019105	9.0886	9.0924	27.566	66.029	76.454	1519.6	-0.16547	231.62	0.68321	0.054926	0.062673	15.956	45.562	48.753	128.39	29.156	39.240	481.83	52.775	12.963	0.027493
393.74	0.20240	52.324	0.019112	9.1174	9.1213	27.640	65.995	76.466	1519.0	-0.16521	230.84	0.68324	0.054850	0.063377	15.779	45.570	48.763	128.32	29.181	39.279	481.99	52.561	12.976	0.027541
394.11	0.20480	52.307	0.019118	9.1460	9.1499	27.712	65.961	76.477	1518.5	-0.16496	230.07	0.68328	0.054774	0.064080	15.605	45.577	48.773	128.25	29.205	39.318	482.16	52.349	12.989	0.027588
394.48	0.20720	52.291	0.019124	9.1743	9.1782	27.784	65.928	76.488	1518.0	-0.16471	229.32	0.68331	0.054699	0.064783	15.436	45.584	48.783	128.18	29.230	39.357	482.32	52.141	13.002	0.027635
394.85	0.20960	52.274	0.019130	9.2023	9.2063	27.855	65.895	76.499	1517.4	-0.16447	228.57	0.68334	0.054625	0.065485	15.271	45.592	48.792	128.11	29.254	39.396	482.48	51.936	13.015	0.027682
395.21	0.21200	52.258	0.019136	9.2301	9.2342	27.926	65.863	76.511	1516.9	-0.16422	227.84	0.68337	0.054552	0.066187	15.109	45.599	48.802	128.04	29.278	39.434	482.64	51.734	13.027	0.027728
395.57	0.21440	52.241	0.019142	9.2576	9.2618	27.995	65.831	76.522	1516.3	-0.16398	227.12	0.68340	0.054479	0.066888	14.950	45.606	48.811	127.97	29.302	39.473	482.79	51.535	13.040	0.027774
395.93	0.21680	52.225	0.019148	9.2849	9.2891	28.064	65.799	76.533	1515.8	-0.16373	226.41	0.68343	0.054407	0.067589	14.795	45.613	48.820	127.91	29.326	39.511	482.95	51.339	13.052	0.027820
396.28	0.21920	52.209	0.019154	9.3120	9.3162	28.132	65.767	76.544	1515.3	-0.16349	225.71	0.68345	0.054335	0.068290	14.644	45.619	48.829	127.84	29.350	39.549	483.10	51.146	13.064	0.027865
396.63	0.22160	52.193	0.019160	9.3388	9.3430	28.200	65.736	76.555	1514.7	-0.16325	225.02	0.68347	0.054264	0.068989	14.495	45.626	48.838	127.78	29.374	39.587	483.25	50.956	13.076	0.027910
396.98	0.22400	52.177	0.019165	9.3654	9.3697	28.267	65.705	76.566	1514.2	-0.16302	224.34	0.68350	0.054193	0.069689	14.349	45.633	48.847	127.71	29.397	39.625	483.40	50.769	13.088	0.027955
397.32	0.22640	52.162	0.019171	9.3917	9.3961	28.333	65.675	76.577	1513.7	-0.16278	223.67	0.68352	0.054123	0.070388	14.207	45.640	48.856	127.65	29.421	39.663	483.55	50.584	13.100	0.027999
397.67	0.22880	52.146	0.019177	9.4178	9.4222	28.399	65.645	76.588	1513.2	-0.16254	223.01	0.68354	0.054054	0.071086	14.067	45.646	48.865	127.58	29.444	39.700	483.69	50.402	13.112	0.028043
398.00	0.23120	52.130	0.019183	9.4438	9.4482	28.464	65.614	76.599	1512.6	-0.16231	222.36	0.68355	0.053985	0.071785	13.931	45.653	48.873	127.52	29.468	39.738	483.83	50.222	13.124	0.028087
398.34	0.23360	52.115	0.019188	9.4694	9.4739	28.529	65.585	76.610	1512.1	-0.16208	221.72	0.68357	0.053917	0.072482	13.796	45.659	48.882	127.46	29.491	39.775	483.98	50.044	13.135	0.028131
398.67	0.23600	52.100	0.019194	9.4949	9.4995	28.593	65.555	76.620	1511.6	-0.16185	221.09	0.68359	0.053849	0.073180	13.665	45.666	48.890	127.40	29.514	39.813	484.12	49.870	13.147	0.028174
399.00	0.23840	52.085	0.019200	9.5202	9.5248	28.656	65.526	76.631	1511.1	-0.16162	220.46	0.68360	0.053781	0.073877	13.536	45.672	48.899	127.34	29.537	39.850	484.26	49.697	13.158	0.028217
399.33	0.24080	52.069	0.019205	9.5453	9.5499	28.719	65.497	76.642	1510.5	-0.16139	219.85	0.68361	0.053715	0.074573	13.410	45.678	48.907	127.28	29.560	39.887	484.39	49.527	13.169	0.028260
399.66	0.24320	52.054	0.019211	9.5702	9.5748	28.781	65.469	76.653	1510.0	-0.16116	219.24	0.68363	0.053648	0.075269	13.286	45.684	48.915	127.22	29.583	39.924	484.53	49.359	13.181	0.028302
399.98	0.24560	52.039	0.019216	9.5948	9.5995	28.843	65.440	76.663	1509.5	-0.16094	218.64	0.68364	0.053583	0.075965	13.164	45.690	48.924	127.16	29.606	39.961	484.66	49.193	13.192	0.028344
400.30	0.24800	52.025	0.019222	9.6193	9.6241	28.904	65.412	76.674	1509.0	-0.16072	218.05	0.68365	0.053517	0.076660	13.045	45.697	48.932	127.10	29.629	39.997	484.80	49.029	13.203	0.028386
400.61	0.25040	52.010	0.019227	9.6436	9.6484	28.965	65.384	76.685	1508.5	-0.16049	217.46	0.68366	0.053452	0.077355	12.927	45.703	48.940	127.04	29.652	40.034	484.93	48.867	13.214	0.028428
400.93	0.25280	51.995	0.019233	9.6677	9.6726	29.025	65.356	76.695	1508.0	-0.16027	216.89	0.68367	0.053388	0.078049	12.812	45.709	48.948	126.98	29.674	40.071	485.06	48.707	13.225	0.028470
401.24	0.25520	51.981	0.019238	9.6917	9.6966	29.085	65.329	76.706	1507.5	-0.16005	216.32	0.68367	0.053324	0.078743	12.699	45.714	48.955	126.93	29.697	40.107	485.19	48.550	13.235	0.028511
401.55	0.25760	51.966	0.019243	9.7154	9.7204	29.144	65.302	76.717	1506.9	-0.15983	215.75	0.68368	0.053260	0.079437	12.589	45.720	48.963	126.87	29.719	40.143	485.31	48.394	13.246	0.028552
401.86	0.26000	51.952	0.019249	9.7390	9.7440	29.202	65.275	76.727	1506.4	-0.15961	215.20	0.68369	0.053197	0.080130	12.480	45.726	48.971	126.82	29.742	40.180	485.44	48.240	13.257	0.028593
402.16	0.26240	51.938	0.019254	9.7624	9.7674	29.261	65.248	76.738	1505.9	-0.15940	214.65	0.68369	0.053135	0.080823	12.373	45.732	48.978	126.76	29.764	40.216	485.57	48.088	13.267	0.028633
402.47	0.26480	51.923	0.019259	9.7856	9.7907	29.318	65.222	76.748	1505.4	-0.15918	214.11	0.68369	0.053073	0.081516	12.268	45.738	48.986	126.71	29.787	40.252	485.69	47.938	13.278	0.028673
402.77	0.26720	51.909	0.019264	9.8087	9.8138	29.376	65.195	76.759	1504.9	-0.15897	213.57	0.68370	0.053011	0.082208	12.164	45.743	48.993	126.65	29.809	40.288	485.81	47.789	13.288	0.028714
403.07	0.26960	51.895	0.019270	9.8316	9.8368	29.433	65.169	76.769	1504.4	-0.15875	213.04	0.68370	0.052949	0.082900	12.063	45.749	49.001	126.60	29.831	40.324	485.93	47.643	13.298	0.028753
403.36	0.27200	51.881	0.019275	9.8543	9.8596	29.489	65.143	76.779	1503.9	-0.15854	212.52	0.68370	0.052888	0.083592	11.963	45.754	49.008	126.54	29.853	40.359	486.05	47.497	13.309	0.028793
403.66	0.27440	51.867	0.019280	9.8769	9.8822	29.545	65.118	76.790	1503.4	-0.15833	212.00	0.68370	0.052828	0.084283	11.865	45.760	49.016	126.49	29.875	40.395	486.17	47.354	13.319	0.028832
403.95	0.27680	51.854	0.019285	9.8993	9.9047	29.600	65.092	76.800	1502.9	-0.15812	211.49	0.68370	0.052768	0.084974	11.768	45.765	49.023	126.44	29.897	40.430	486.29	47.212	13.329	0.028872
404.24	0.27920	51.840	0.019290	9.9216	9.9270	29.656	65.067	76.811	1502.4	-0.15791	210.99	0.68370	0.052708	0.085664	11.674	45.771	49.030	126.39	29.919	40.466	486.40	47.072	13.339	0.028911
404.53	0.28160	51.826	0.019295	9.9437	9.9491	29.710	65.042	76.821	1501.9	-0.15770	210.49	0.68370	0.052649	0.086354	11.580	45.776	49.037	126.34	29.940	40.501	486.52	46.933	13.349	0.028949
404.81	0.28400	51.813	0.019300	9.9657	9.9711	29.765	65.017	76.831	1501.4	-0.15750	210.00	0.68369	0.052590	0.087044	11.488	45.781	49.044	126.29	29.962	40.537	486.63	46.796	13.359	0.028988
405.10	0.28640	51.799	0.019305	9.9875	9.9930	29.818	64.993	76.841	1500.9	-0.15729	209.51	0.68369	0.052531	0.087733	11.398	45.787	49.051	126.23	29.984	40.572	486.75	46.661	13.368	0.029026
405.38	0.28880	51.786	0.019310	10.009	10.015	29.872	64.968	76.852	1500.5	-0.15708	209.03	0.68369	0.052473	0.088423	11.309	45.792	49.058	126.18	30.005	40.607	486.86	46.527	13.378	0.029065
405.66	0.29120	51.772	0.019315	10.031	10.036	29.925	64.944	76.862	1500.0	-0.15688	208.55	0.68368	0.052415	0.089111	11.222	45.797	49.065	126.13	30.027	40.642	486.97	46.394	13.388	0.029103
405.94	0.29360	51.759	0.019320	10.052	10.058	29.978	64.920	76.872	1499.5	-0.15668	208.08	0.68368	0.052357	0.089800	11.136	45.802	49.072	126.09	30.048	40.677	487.08	46.263	13.398	0.029140
406.22	0.29600	51.746	0.019325	10.073	10.079	30.030	64.896	76.882	1499.0	-0.15647	207.61	0.68367	0.052300	0.090488	11.051	45.807	49.078	126.04	30.070	40.712	487.19	46.133	13.407	0.029178
406.49	0.29840	51.733	0.019330	10.094	10.100	30.082	64.872	76.892	1498.5	-0.15627	207.15	0.68366	0.052243	0.091176	10.968	45.812	49.085	125.99	30.091	40.746	487.30	46.004	13.417	0.029215
406.76	0.30080	51.719	0.019335	10.115	10.121	30.134	64.848	76.903	1498.0	-0.15607	206.69	0.68366	0.052186	0.091864	10.886	45.817	49.092	125.94	30.112	40.781	487.40	45.877	13.426	0.029253
407.03	0.30320	51.706	0.019340	10.136	10.142	30.185	64.825	76.913	1497.5	-0.15587	206.24	0.68365	0.052130	0.092551	10.805	45.822	49.098	125.89	30.133	40.816	487.51	45.751	13.435	0.029290
407.30	0.30560	51.693	0.019345	10.157	10.163	30.236	64.802	76.923	1497.1	-0.15567	205.79	0.68364	0.052074	0.093238	10.725	45.827	49.105	125.84	30.154	40.850	487.61	45.626	13.445	0.029327
407.57	0.30800	51.681	0.019350	10.178	10.184	30.286	64.779	76.933	1496.6	-0.15548	205.35	0.68363	0.052019	0.093925	10.647	45.832	49.111	125.80	30.175	40.884	487.72	45.503	13.454	0.029363
407.84	0.31040	51.668	0.019354	10.198	10.204	30.336	64.756	76.943	1496.1	-0.15528	204.91	0.68362	0.051964	0.094611	10.570	45.837	49.118	125.75	30.196	40.919	487.82	45.381	13.463	0.029400
408.10	0.31280	51.655	0.019359	10.218	10.224	30.386	64.733	76.953	1495.6	-0.15508	204.48	0.68361	0.051909	0.095297	10.494	45.842	49.124	125.70	30.217	40.953	487.92	45.260	13.472	0.029436
408.37	0.31520	51.642	0.019364	10.239	10.245	30.436	64.710	76.963	1495.2	-0.15489	204.05	0.68360	0.051854	0.095983	10.419	45.847	49.130	125.66	30.238	40.987	488.02	45.140	13.481	0.029472
408.63	0.31760	51.630	0.019369	10.259	10.265	30.485	64.688	76.973	1494.7	-0.15469	203.63	0.68359	0.051800	0.096668	10.345	45.851	49.137	125.61	30.259	41.021	488.12	45.021	13.490	0.029508
408.89	0.32000	51.617	0.019373	10.279	10.285	30.534	64.666	76.983	1494.2	-0.15450	203.21	0.68358	0.051746	0.097354	10.272	45.856	49.143	125.57	30.280	41.055	488.22	44.904	13.499	0.029544
409.14	0.32240	51.605	0.019378	10.299	10.305	30.582	64.644	76.993	1493.7	-0.15430	202.79	0.68357	0.051692	0.098038	10.200	45.861	49.149	125.52	30.300	41.089	488.32	44.788	13.508	0.029580
409.40	0.32480	51.592	0.019383	10.318	10.325	30.631	64.622	77.003	1493.3	-0.15411	202.38	0.68355	0.051639	0.098723	10.129	45.865	49.155	125.48	30.321	41.123	488.42	44.672	13.517	0.029616
409.66	0.32720	51.580	0.019387	10.338	10.344	30.679	64.600	77.012	1492.8	-0.15392	201.97	0.68354	0.051586	0.099408	10.060	45.870	49.161	125.43	30.342	41.157	488.52	44.558	13.526	0.029651
409.91	0.32960	51.567	0.019392	10.357	10.364	30.726	64.578	77.022	1492.3	-0.15373	201.57	0.68353	0.051533	0.10009	9.9908	45.874	49.167	125.39	30.362	41.191	488.61	44.445	13.535	0.029686
410.16	0.33200	51.555	0.019397	10.377	10.383	30.774	64.557	77.032	1491.9	-0.15354	201.17	0.68351	0.051480	0.10078	9.9230	45.879	49.173	125.35	30.383	41.224	488.71	44.333	13.543	0.029721
410.41	0.33440	51.543	0.019401	10.396	10.403	30.821	64.535	77.042	1491.4	-0.15335	200.77	0.68350	0.051428	0.10146	9.8562	45.883	49.179	125.30	30.403	41.258	488.80	44.222	13.552	0.029756
410.66	0.33680	51.531	0.019406	10.415	10.422	30.867	64.514	77.052	1490.9	-0.15316	200.38	0.68348	0.051376	0.10214	9.7903	45.888	49.185	125.26	30.423	41.291	488.90	44.112	13.561	0.029791
410.91	0.33920	51.519	0.019410	10.434	10.441	30.914	64.493	77.062	1490.5	-0.15297	199.99	0.68347	0.051324	0.10283	9.7252	45.892	49.191	125.22	30.444	41.325	488.99	44.003	13.569	0.029825
411.16	0.34160	51.506	0.019415	10.453	10.460	30.960	64.472	77.071	1490.0	-0.15279	199.61	0.68345	0.051273	0.10351	9.6611	45.897	49.197	125.17	30.464	41.358	489.08	43.895	13.578	0.029860
411.40	0.34400	51.494	0.019420	10.472	10.479	31.006	64.451	77.081	1489.5	-0.15260	199.22	0.68343	0.051222	0.10419	9.5978	45.901	49.203	125.13	30.484	41.391	489.17	43.788	13.586	0.029894
411.64	0.34640	51.483	0.019424	10.491	10.498	31.051	64.430	77.091	1489.1	-0.15241	198.85	0.68342	0.051171	0.10487	9.5353	45.905	49.208	125.09	30.504	41.424	489.26	43.682	13.595	0.029928
411.89	0.34880	51.471	0.019429	10.510	10.516	31.097	64.410	77.101	1488.6	-0.15223	198.47	0.68340	0.051120	0.10556	9.4737	45.910	49.214	125.05	30.524	41.458	489.35	43.577	13.603	0.029962
412.13	0.35120	51.459	0.019433	10.528	10.535	31.142	64.389	77.110	1488.2	-0.15204	198.10	0.68338	0.051070	0.10624	9.4129	45.914	49.220	125.01	30.544	41.491	489.44	43.472	13.611	0.029996
412.37	0.35360	51.447	0.019437	10.547	10.553	31.186	64.369	77.120	1487.7	-0.15186	197.73	0.68336	0.051020	0.10692	9.3529	45.918	49.225	124.97	30.564	41.524	489.53	43.369	13.620	0.030030
412.61	0.35600	51.435	0.019442	10.565	10.572	31.231	64.349	77.130	1487.3	-0.15168	197.37	0.68334	0.050970	0.10760	9.2937	45.922	49.231	124.93	30.584	41.556	489.62	43.267	13.628	0.030063
412.84	0.35840	51.424	0.019446	10.583	10.590	31.275	64.329	77.139	1486.8	-0.15149	197.01	0.68333	0.050920	0.10828	9.2353	45.927	49.237	124.89	30.604	41.589	489.70	43.165	13.636	0.030097
413.08	0.36080	51.412	0.019451	10.601	10.608	31.319	64.309	77.149	1486.4	-0.15131	196.65	0.68331	0.050871	0.10896	9.1776	45.931	49.242	124.85	30.624	41.622	489.79	43.064	13.644	0.030130
413.31	0.36320	51.400	0.019455	10.619	10.626	31.363	64.289	77.158	1485.9	-0.15113	196.30	0.68329	0.050822	0.10964	9.1206	45.935	49.247	124.81	30.644	41.655	489.88	42.964	13.652	0.030163
413.55	0.36560	51.389	0.019460	10.637	10.644	31.406	64.269	77.168	1485.5	-0.15095	195.95	0.68327	0.050773	0.11032	9.0644	45.939	49.253	124.77	30.663	41.687	489.96	42.865	13.660	0.030196
413.78	0.36800	51.377	0.019464	10.655	10.662	31.449	64.250	77.178	1485.0	-0.15077	195.60	0.68325	0.050724	0.11100	9.0088	45.943	49.258	124.73	30.683	41.720	490.05	42.767	13.668	0.030229
414.01	0.37040	51.366	0.019468	10.673	10.680	31.492	64.230	77.187	1484.6	-0.15059	195.25	0.68323	0.050676	0.11168	8.9540	45.947	49.264	124.69	30.703	41.753	490.13	42.670	13.676	0.030262
414.24	0.37280	51.354	0.019473	10.691	10.698	31.535	64.211	77.197	1484.1	-0.15041	194.91	0.68320	0.050628	0.11236	8.8998	45.951	49.269	124.65	30.722	41.785	490.21	42.573	13.684	0.030295
414.47	0.37520	51.343	0.019477	10.708	10.716	31.578	64.192	77.206	1483.7	-0.15023	194.57	0.68318	0.050580	0.11304	8.8463	45.955	49.274	124.61	30.742	41.817	490.29	42.477	13.692	0.030327
414.69	0.37760	51.332	0.019481	10.726	10.733	31.620	64.173	77.216	1483.2	-0.15006	194.23	0.68316	0.050532	0.11372	8.7935	45.959	49.279	124.57	30.761	41.850	490.38	42.382	13.700	0.030360
414.92	0.38000	51.320	0.019485	10.743	10.751	31.662	64.154	77.225	1482.8	-0.14988	193.90	0.68314	0.050485	0.11440	8.7413	45.963	49.285	124.53	30.781	41.882	490.46	42.288	13.708	0.030392
415.14	0.38240	51.309	0.019490	10.761	10.768	31.704	64.135	77.235	1482.3	-0.14970	193.57	0.68312	0.050437	0.11508	8.6898	45.967	49.290	124.50	30.800	41.914	490.54	42.194	13.715	0.030424
415.37	0.38480	51.298	0.019494	10.778	10.785	31.745	64.116	77.244	1481.9	-0.14953	193.24	0.68309	0.050390	0.11576	8.6388	45.971	49.295	124.46	30.819	41.946	490.62	42.102	13.723	0.030456
415.59	0.38720	51.287	0.019498	10.795	10.803	31.787	64.097	77.254	1481.5	-0.14935	192.91	0.68307	0.050343	0.11643	8.5885	45.975	49.300	124.42	30.838	41.978	490.70	42.009	13.731	0.030488
415.81	0.38960	51.276	0.019502	10.812	10.820	31.828	64.079	77.263	1481.0	-0.14918	192.59	0.68305	0.050297	0.11711	8.5388	45.978	49.305	124.38	30.858	42.010	490.77	41.918	13.739	0.030520
416.03	0.39200	51.265	0.019507	10.829	10.837	31.869	64.060	77.272	1480.6	-0.14900	192.27	0.68302	0.050250	0.11779	8.4896	45.982	49.310	124.35	30.877	42.042	490.85	41.827	13.746	0.030552
416.25	0.39440	51.254	0.019511	10.846	10.854	31.909	64.042	77.282	1480.1	-0.14883	191.95	0.68300	0.050204	0.11847	8.4411	45.986	49.315	124.31	30.896	42.074	490.93	41.737	13.754	0.030583
416.47	0.39680	51.243	0.019515	10.863	10.871	31.950	64.024	77.291	1479.7	-0.14866	191.64	0.68298	0.050158	0.11915	8.3931	45.990	49.320	124.27	30.915	42.106	491.01	41.648	13.761	0.030615
416.69	0.39920	51.232	0.019519	10.880	10.887	31.990	64.006	77.301	1479.3	-0.14848	191.33	0.68295	0.050112	0.11982	8.3456	45.994	49.325	124.24	30.934	42.138	491.08	41.560	13.769	0.030646
416.90	0.40160	51.221	0.019523	10.896	10.904	32.030	63.988	77.310	1478.8	-0.14831	191.02	0.68293	0.050067	0.12050	8.2988	45.997	49.330	124.20	30.953	42.169	491.16	41.472	13.776	0.030677
417.12	0.40400	51.210	0.019527	10.913	10.921	32.070	63.970	77.319	1478.4	-0.14814	190.71	0.68290	0.050021	0.12118	8.2524	46.001	49.335	124.16	30.972	42.201	491.23	41.384	13.784	0.030708
417.33	0.40640	51.199	0.019531	10.929	10.937	32.109	63.952	77.329	1478.0	-0.14797	190.40	0.68288	0.049976	0.12185	8.2066	46.005	49.340	124.13	30.991	42.233	491.31	41.298	13.791	0.030739
417.54	0.40880	51.189	0.019536	10.946	10.954	32.149	63.934	77.338	1477.5	-0.14780	190.10	0.68285	0.049931	0.12253	8.1613	46.008	49.345	124.09	31.010	42.264	491.38	41.212	13.798	0.030770
417.76	0.41120	51.178	0.019540	10.962	10.970	32.188	63.917	77.347	1477.1	-0.14763	189.80	0.68283	0.049886	0.12321	8.1165	46.012	49.349	124.06	31.029	42.296	491.46	41.126	13.806	0.030801
417.97	0.41360	51.167	0.019544	10.979	10.987	32.227	63.899	77.356	1476.7	-0.14746	189.50	0.68280	0.049842	0.12388	8.0722	46.015	49.354	124.02	31.047	42.327	491.53	41.042	13.813	0.030831
418.18	0.41600	51.157	0.019548	10.995	11.003	32.266	63.882	77.366	1476.3	-0.14729	189.21	0.68277	0.049797	0.12456	8.0284	46.019	49.359	123.99	31.066	42.358	491.60	40.958	13.820	0.030862
418.39	0.41840	51.146	0.019552	11.011	11.019	32.305	63.864	77.375	1475.8	-0.14712	188.91	0.68275	0.049753	0.12523	7.9851	46.023	49.364	123.95	31.085	42.390	491.67	40.874	13.827	0.030892
418.59	0.42080	51.135	0.019556	11.027	11.035	32.343	63.847	77.384	1475.4	-0.14695	188.62	0.68272	0.049709	0.12591	7.9422	46.026	49.368	123.92	31.103	42.421	491.75	40.791	13.835	0.030923
418.80	0.42320	51.125	0.019560	11.043	11.051	32.381	63.830	77.393	1475.0	-0.14679	188.33	0.68269	0.049665	0.12658	7.8999	46.030	49.373	123.88	31.122	42.452	491.82	40.709	13.842	0.030953
419.01	0.42560	51.114	0.019564	11.059	11.067	32.419	63.813	77.403	1474.6	-0.14662	188.05	0.68267	0.049622	0.12726	7.8580	46.033	49.377	123.85	31.140	42.483	491.89	40.627	13.849	0.030983
419.21	0.42800	51.104	0.019568	11.075	11.083	32.457	63.796	77.412	1474.1	-0.14645	187.76	0.68264	0.049578	0.12793	7.8165	46.037	49.382	123.82	31.159	42.514	491.96	40.546	13.856	0.031013
419.42	0.43040	51.094	0.019572	11.091	11.099	32.495	63.779	77.421	1473.7	-0.14629	187.48	0.68261	0.049535	0.12861	7.7755	46.040	49.387	123.78	31.177	42.545	492.03	40.465	13.863	0.031043
419.62	0.43280	51.083	0.019576	11.106	11.115	32.532	63.762	77.430	1473.3	-0.14612	187.20	0.68258	0.049492	0.12928	7.7350	46.043	49.391	123.75	31.196	42.576	492.10	40.385	13.870	0.031073
419.82	0.43520	51.073	0.019580	11.122	11.131	32.570	63.745	77.439	1472.9	-0.14596	186.92	0.68255	0.049449	0.12996	7.6948	46.047	49.396	123.72	31.214	42.607	492.16	40.306	13.877	0.031103
420.03	0.43760	51.063	0.019584	11.138	11.146	32.607	63.729	77.448	1472.5	-0.14579	186.64	0.68253	0.049406	0.13063	7.6551	46.050	49.400	123.68	31.232	42.638	492.23	40.227	13.884	0.031132
420.23	0.44000	51.052	0.019588	11.153	11.162	32.644	63.712	77.457	1472.0	-0.14563	186.37	0.68250	0.049363	0.13131	7.6158	46.054	49.405	123.65	31.251	42.669	492.30	40.148	13.891	0.031162
420.43	0.44240	51.042	0.019592	11.169	11.177	32.681	63.695	77.467	1471.6	-0.14546	186.10	0.68247	0.049321	0.13198	7.5769	46.057	49.409	123.62	31.269	42.700	492.37	40.071	13.898	0.031191
420.63	0.44480	51.032	0.019596	11.184	11.193	32.717	63.679	77.476	1471.2	-0.14530	185.83	0.68244	0.049279	0.13265	7.5385	46.060	49.413	123.58	31.287	42.730	492.43	39.993	13.905	0.031220
420.82	0.44720	51.022	0.019600	11.199	11.208	32.754	63.663	77.485	1470.8	-0.14514	185.56	0.68241	0.049237	0.13333	7.5004	46.064	49.418	123.55	31.305	42.761	492.50	39.916	13.912	0.031250
421.02	0.44960	51.012	0.019603	11.215	11.223	32.790	63.647	77.494	1470.4	-0.14497	185.29	0.68238	0.049195	0.13400	7.4627	46.067	49.422	123.52	31.323	42.792	492.57	39.840	13.918	0.031279
421.22	0.45200	51.001	0.019607	11.230	11.239	32.826	63.630	77.503	1470.0	-0.14481	185.03	0.68235	0.049153	0.13467	7.4254	46.070	49.426	123.49	31.342	42.822	492.63	39.764	13.925	0.031308
421.41	0.45440	50.991	0.019611	11.245	11.254	32.862	63.614	77.512	1469.5	-0.14465	184.76	0.68232	0.049111	0.13535	7.3885	46.073	49.431	123.45	31.360	42.853	492.70	39.689	13.932	0.031337
421.61	0.45680	50.981	0.019615	11.260	11.269	32.898	63.598	77.521	1469.1	-0.14449	184.50	0.68229	0.049070	0.13602	7.3520	46.077	49.435	123.42	31.378	42.883	492.76	39.614	13.939	0.031366
421.80	0.45920	50.971	0.019619	11.275	11.284	32.933	63.582	77.530	1468.7	-0.14433	184.24	0.68226	0.049029	0.13669	7.3158	46.080	49.439	123.39	31.396	42.913	492.82	39.540	13.945	0.031395
421.99	0.46160	50.961	0.019623	11.290	11.299	32.969	63.567	77.539	1468.3	-0.14417	183.99	0.68223	0.048988	0.13736	7.2800	46.083	49.443	123.36	31.414	42.944	492.89	39.466	13.952	0.031423
422.19	0.46400	50.952	0.019627	11.305	11.314	33.004	63.551	77.548	1467.9	-0.14401	183.73	0.68220	0.048947	0.13804	7.2445	46.086	49.448	123.33	31.431	42.974	492.95	39.393	13.959	0.031452
422.38	0.46640	50.942	0.019630	11.320	11.329	33.039	63.535	77.557	1467.5	-0.14385	183.48	0.68217	0.048906	0.13871	7.2094	46.089	49.452	123.30	31.449	43.004	493.01	39.320	13.965	0.031480
422.57	0.46880	50.932	0.019634	11.335	11.344	33.074	63.520	77.566	1467.1	-0.14369	183.22	0.68214	0.048865	0.13938	7.1747	46.093	49.456	123.27	31.467	43.034	493.08	39.248	13.972	0.031509
422.76	0.47120	50.922	0.019638	11.349	11.359	33.109	63.504	77.575	1466.7	-0.14353	182.97	0.68211	0.048825	0.14005	7.1403	46.096	49.460	123.23	31.485	43.065	493.14	39.176	13.978	0.031537
422.95	0.47360	50.912	0.019642	11.364	11.373	33.144	63.489	77.584	1466.3	-0.14337	182.72	0.68208	0.048784	0.14072	7.1062	46.099	49.464	123.20	31.503	43.095	493.20	39.104	13.985	0.031565
423.14	0.47600	50.902	0.019645	11.379	11.388	33.178	63.473	77.593	1465.9	-0.14321	182.48	0.68204	0.048744	0.14139	7.0724	46.102	49.468	123.17	31.520	43.125	493.26	39.033	13.991	0.031593
423.32	0.47840	50.893	0.019649	11.393	11.402	33.213	63.458	77.601	1465.5	-0.14306	182.23	0.68201	0.048704	0.14207	7.0390	46.105	49.472	123.14	31.538	43.155	493.32	38.962	13.998	0.031622
423.51	0.48080	50.883	0.019653	11.408	11.417	33.247	63.443	77.610	1465.1	-0.14290	181.99	0.68198	0.048664	0.14274	7.0059	46.108	49.476	123.11	31.556	43.185	493.38	38.892	14.004	0.031650
423.70	0.48320	50.873	0.019657	11.422	11.431	33.281	63.427	77.619	1464.7	-0.14274	181.75	0.68195	0.048624	0.14341	6.9732	46.111	49.480	123.08	31.573	43.214	493.44	38.823	14.011	0.031677
423.88	0.48560	50.864	0.019660	11.436	11.446	33.315	63.412	77.628	1464.3	-0.14258	181.51	0.68192	0.048585	0.14408	6.9407	46.114	49.484	123.05	31.591	43.244	493.50	38.753	14.017	0.031705
424.07	0.48800	50.854	0.019664	11.451	11.460	33.349	63.397	77.637	1463.9	-0.14243	181.27	0.68189	0.048545	0.14475	6.9085	46.117	49.488	123.02	31.608	43.274	493.56	38.684	14.024	0.031733
424.25	0.49040	50.844	0.019668	11.465	11.475	33.382	63.382	77.646	1463.5	-0.14227	181.03	0.68185	0.048506	0.14542	6.8767	46.120	49.492	122.99	31.626	43.304	493.62	38.616	14.030	0.031761
424.44	0.49280	50.835	0.019672	11.479	11.489	33.416	63.367	77.655	1463.1	-0.14212	180.79	0.68182	0.048467	0.14609	6.8451	46.123	49.496	122.96	31.643	43.334	493.68	38.548	14.036	0.031788
424.62	0.49520	50.825	0.019675	11.493	11.503	33.449	63.353	77.664	1462.7	-0.14196	180.56	0.68179	0.048428	0.14676	6.8139	46.126	49.500	122.93	31.660	43.363	493.74	38.480	14.043	0.031816
424.80	0.49760	50.816	0.019679	11.507	11.517	33.482	63.338	77.672	1462.3	-0.14181	180.33	0.68175	0.048389	0.14743	6.7829	46.129	49.504	122.91	31.678	43.393	493.79	38.413	14.049	0.031843
424.98	0.50000	50.806	0.019683	11.521	11.531	33.515	63.323	77.681	1461.9	-0.14165	180.09	0.68172	0.048350	0.14810	6.7522	46.132	49.508	122.88	31.695	43.422	493.85	38.346	14.055	0.031870
