Temperature (K)	Pressure (MPa)	Density (mol/l)	Volume (l/mol)	Internal Energy (kJ/mol)	Enthalpy (kJ/mol)	Entropy (J/mol*K)	Cv (J/mol*K)	Cp (J/mol*K)	Sound Spd. (m/s)	Joule-Thomson (K/MPa)	Viscosity (uPa*s)	Therm. Cond. (W/m*K)	Phase
550.00	1.0000	0.22526	4.4393	49.639	54.078	126.75	29.111	38.998	565.75	14.110	19.196	0.042798	vapor
550.00	1.2450	0.28264	3.5381	49.537	53.942	124.74	29.583	39.935	563.32	14.131	19.160	0.043330	vapor
550.00	1.4900	0.34098	2.9327	49.432	53.802	123.05	30.083	40.937	560.82	14.142	19.125	0.043877	vapor
550.00	1.7350	0.40034	2.4979	49.324	53.658	121.59	30.610	42.008	558.26	14.144	19.091	0.044440	vapor
550.00	1.9800	0.46078	2.1703	49.213	53.510	120.28	31.166	43.152	555.62	14.138	19.057	0.045020	vapor
550.00	2.2250	0.52235	1.9144	49.099	53.359	119.10	31.753	44.377	552.91	14.124	19.023	0.045618	vapor
550.00	2.4700	0.58514	1.7090	48.982	53.203	118.01	32.371	45.688	550.12	14.102	18.990	0.046234	vapor
550.00	2.7150	0.64923	1.5403	48.861	53.043	117.00	33.023	47.094	547.26	14.072	18.957	0.046872	vapor
550.00	2.9600	0.71469	1.3992	48.737	52.878	116.05	33.710	48.603	544.30	14.035	18.925	0.047532	vapor
550.00	3.2050	0.78163	1.2794	48.608	52.709	115.14	34.436	50.228	541.25	13.992	18.893	0.048216	vapor
550.00	3.4500	0.85015	1.1763	48.476	52.534	114.28	35.204	51.980	538.10	13.942	18.861	0.048926	vapor
550.00	3.6950	0.92037	1.0865	48.339	52.354	113.45	36.017	53.877	534.85	13.886	18.831	0.049665	vapor
550.00	3.9400	0.99243	1.0076	48.197	52.167	112.64	36.882	55.938	531.48	13.825	18.801	0.050436	vapor
550.00	4.1850	1.0665	0.93767	48.050	51.975	111.86	37.804	58.188	527.97	13.757	18.771	0.051241	vapor
550.00	4.4300	1.1427	0.87514	47.898	51.775	111.09	38.794	60.657	524.33	13.683	18.742	0.052085	vapor
550.00	4.6750	1.2212	0.81884	47.740	51.568	110.34	39.862	63.385	520.52	13.603	18.714	0.052971	vapor
550.00	4.9200	1.3024	0.76782	47.574	51.352	109.59	41.023	66.423	516.54	13.517	18.686	0.053907	vapor
550.00	5.1650	1.3864	0.72130	47.402	51.127	108.85	42.297	69.837	512.34	13.424	18.659	0.054897	vapor
550.00	5.4100	1.4736	0.67862	47.221	50.892	108.11	43.711	73.717	507.90	13.322	18.633	0.055950	vapor
550.00	5.6550	1.5644	0.63924	47.031	50.646	107.37	45.301	78.184	503.19	13.212	18.608	0.057077	vapor
550.00	5.9000	1.6592	0.60271	46.829	50.386	106.62	47.116	83.410	498.13	13.091	18.584	0.058292	vapor
550.00	6.1172	1.7471	0.57238	46.641	50.142	105.95	48.968	88.873	493.31	12.973	18.563	0.059456	vapor
550.00	6.1172	41.954	0.023836	21.841	21.987	54.756	55.690	94.275	1027.9	0.094527	94.746	0.58595	liquid
550.00	6.1450	41.956	0.023834	21.840	21.987	54.754	55.690	94.262	1028.1	0.094391	94.755	0.58600	liquid
550.00	6.3900	41.978	0.023822	21.833	21.985	54.740	55.684	94.150	1029.8	0.093198	94.835	0.58643	liquid
550.00	6.6350	42.000	0.023810	21.825	21.983	54.725	55.678	94.038	1031.5	0.092016	94.915	0.58685	liquid
550.00	6.8800	42.021	0.023798	21.817	21.980	54.711	55.672	93.928	1033.3	0.090845	94.995	0.58727	liquid
550.00	7.1250	42.043	0.023785	21.809	21.978	54.697	55.667	93.819	1035.0	0.089684	95.075	0.58769	liquid
550.00	7.3700	42.064	0.023773	21.801	21.976	54.682	55.661	93.711	1036.7	0.088534	95.154	0.58811	liquid
550.00	7.6150	42.085	0.023761	21.793	21.974	54.668	55.656	93.604	1038.4	0.087394	95.233	0.58853	liquid
550.00	7.8600	42.106	0.023749	21.786	21.972	54.654	55.650	93.497	1040.1	0.086265	95.312	0.58894	liquid
550.00	8.1050	42.127	0.023738	21.778	21.970	54.640	55.645	93.392	1041.8	0.085145	95.391	0.58936	liquid
550.00	8.3500	42.148	0.023726	21.770	21.968	54.626	55.639	93.288	1043.4	0.084035	95.469	0.58977	liquid
550.00	8.5950	42.169	0.023714	21.763	21.967	54.612	55.634	93.185	1045.1	0.082935	95.547	0.59018	liquid
550.00	8.8400	42.190	0.023702	21.755	21.965	54.598	55.629	93.083	1046.8	0.081845	95.625	0.59059	liquid
550.00	9.0850	42.211	0.023691	21.748	21.963	54.584	55.623	92.982	1048.4	0.080764	95.703	0.59100	liquid
550.00	9.3300	42.231	0.023679	21.740	21.961	54.570	55.618	92.881	1050.1	0.079692	95.780	0.59140	liquid
550.00	9.5750	42.252	0.023668	21.733	21.959	54.556	55.613	92.782	1051.7	0.078629	95.857	0.59181	liquid
550.00	9.8200	42.273	0.023656	21.725	21.957	54.542	55.608	92.683	1053.4	0.077576	95.934	0.59221	liquid
550.00	10.065	42.293	0.023645	21.718	21.956	54.528	55.603	92.586	1055.0	0.076531	96.011	0.59261	liquid
550.00	10.310	42.313	0.023633	21.710	21.954	54.515	55.598	92.489	1056.6	0.075495	96.087	0.59302	liquid
550.00	10.555	42.333	0.023622	21.703	21.952	54.501	55.593	92.393	1058.2	0.074467	96.164	0.59342	liquid
550.00	10.800	42.354	0.023611	21.696	21.951	54.488	55.588	92.298	1059.8	0.073449	96.240	0.59381	liquid
550.00	11.045	42.374	0.023600	21.688	21.949	54.474	55.583	92.204	1061.4	0.072438	96.316	0.59421	liquid
550.00	11.290	42.394	0.023588	21.681	21.947	54.461	55.579	92.110	1063.0	0.071436	96.391	0.59461	liquid
550.00	11.535	42.414	0.023577	21.674	21.946	54.447	55.574	92.018	1064.6	0.070442	96.467	0.59500	liquid
550.00	11.780	42.433	0.023566	21.667	21.944	54.434	55.569	91.926	1066.2	0.069456	96.542	0.59540	liquid
550.00	12.025	42.453	0.023555	21.659	21.943	54.421	55.565	91.835	1067.8	0.068478	96.617	0.59579	liquid
550.00	12.270	42.473	0.023544	21.652	21.941	54.407	55.560	91.744	1069.3	0.067507	96.692	0.59618	liquid
550.00	12.515	42.492	0.023534	21.645	21.940	54.394	55.555	91.655	1070.9	0.066545	96.766	0.59657	liquid
550.00	12.760	42.512	0.023523	21.638	21.938	54.381	55.551	91.566	1072.4	0.065590	96.841	0.59696	liquid
550.00	13.005	42.531	0.023512	21.631	21.937	54.368	55.546	91.478	1074.0	0.064643	96.915	0.59734	liquid
550.00	13.250	42.551	0.023501	21.624	21.935	54.355	55.542	91.391	1075.5	0.063703	96.989	0.59773	liquid
550.00	13.495	42.570	0.023491	21.617	21.934	54.342	55.537	91.304	1077.1	0.062770	97.063	0.59812	liquid
550.00	13.740	42.589	0.023480	21.610	21.932	54.329	55.533	91.218	1078.6	0.061844	97.137	0.59850	liquid
550.00	13.985	42.608	0.023470	21.603	21.931	54.316	55.529	91.133	1080.1	0.060926	97.210	0.59888	liquid
550.00	14.230	42.628	0.023459	21.596	21.930	54.303	55.524	91.049	1081.6	0.060015	97.283	0.59926	liquid
550.00	14.475	42.647	0.023449	21.589	21.928	54.290	55.520	90.965	1083.1	0.059110	97.356	0.59964	liquid
550.00	14.720	42.666	0.023438	21.582	21.927	54.277	55.516	90.882	1084.7	0.058213	97.429	0.60002	liquid
550.00	14.965	42.684	0.023428	21.575	21.926	54.264	55.512	90.799	1086.2	0.057322	97.502	0.60040	liquid
550.00	15.210	42.703	0.023417	21.568	21.924	54.252	55.508	90.717	1087.6	0.056438	97.574	0.60078	liquid
550.00	15.455	42.722	0.023407	21.561	21.923	54.239	55.503	90.636	1089.1	0.055560	97.647	0.60115	liquid
550.00	15.700	42.741	0.023397	21.555	21.922	54.226	55.499	90.556	1090.6	0.054689	97.719	0.60153	liquid
550.00	15.945	42.759	0.023387	21.548	21.921	54.214	55.495	90.476	1092.1	0.053824	97.791	0.60190	liquid
550.00	16.190	42.778	0.023377	21.541	21.920	54.201	55.491	90.396	1093.6	0.052966	97.863	0.60227	liquid
550.00	16.435	42.796	0.023366	21.534	21.918	54.189	55.487	90.318	1095.0	0.052114	97.934	0.60265	liquid
550.00	16.680	42.815	0.023356	21.528	21.917	54.176	55.483	90.239	1096.5	0.051268	98.006	0.60302	liquid
550.00	16.925	42.833	0.023346	21.521	21.916	54.164	55.479	90.162	1098.0	0.050428	98.077	0.60339	liquid
550.00	17.170	42.851	0.023336	21.514	21.915	54.151	55.475	90.085	1099.4	0.049595	98.148	0.60375	liquid
550.00	17.415	42.870	0.023327	21.508	21.914	54.139	55.471	90.009	1100.9	0.048767	98.219	0.60412	liquid
550.00	17.660	42.888	0.023317	21.501	21.913	54.127	55.468	89.933	1102.3	0.047945	98.290	0.60449	liquid
550.00	17.905	42.906	0.023307	21.495	21.912	54.114	55.464	89.857	1103.7	0.047129	98.360	0.60485	liquid
550.00	18.150	42.924	0.023297	21.488	21.911	54.102	55.460	89.783	1105.2	0.046319	98.431	0.60522	liquid
550.00	18.395	42.942	0.023287	21.481	21.910	54.090	55.456	89.709	1106.6	0.045514	98.501	0.60558	liquid
550.00	18.640	42.960	0.023277	21.475	21.909	54.078	55.453	89.635	1108.0	0.044715	98.571	0.60594	liquid
550.00	18.885	42.978	0.023268	21.468	21.908	54.065	55.449	89.562	1109.4	0.043922	98.641	0.60630	liquid
550.00	19.130	42.996	0.023258	21.462	21.907	54.053	55.445	89.489	1110.8	0.043134	98.711	0.60666	liquid
550.00	19.375	43.013	0.023249	21.456	21.906	54.041	55.442	89.417	1112.2	0.042351	98.780	0.60702	liquid
550.00	19.620	43.031	0.023239	21.449	21.905	54.029	55.438	89.346	1113.6	0.041574	98.850	0.60738	liquid
550.00	19.865	43.049	0.023229	21.443	21.904	54.017	55.434	89.275	1115.0	0.040802	98.919	0.60774	liquid
550.00	20.110	43.066	0.023220	21.436	21.903	54.005	55.431	89.204	1116.4	0.040036	98.988	0.60809	liquid
550.00	20.355	43.084	0.023211	21.430	21.902	53.993	55.427	89.134	1117.8	0.039274	99.057	0.60845	liquid
550.00	20.600	43.101	0.023201	21.424	21.902	53.982	55.424	89.065	1119.2	0.038518	99.126	0.60880	liquid
550.00	20.845	43.119	0.023192	21.417	21.901	53.970	55.420	88.995	1120.6	0.037767	99.195	0.60916	liquid
550.00	21.090	43.136	0.023182	21.411	21.900	53.958	55.417	88.927	1122.0	0.037020	99.263	0.60951	liquid
550.00	21.335	43.153	0.023173	21.405	21.899	53.946	55.413	88.859	1123.3	0.036279	99.332	0.60986	liquid
550.00	21.580	43.171	0.023164	21.398	21.898	53.934	55.410	88.791	1124.7	0.035543	99.400	0.61021	liquid
550.00	21.825	43.188	0.023155	21.392	21.898	53.923	55.407	88.724	1126.0	0.034811	99.468	0.61056	liquid
550.00	22.070	43.205	0.023145	21.386	21.897	53.911	55.403	88.657	1127.4	0.034084	99.536	0.61091	liquid
550.00	22.315	43.222	0.023136	21.380	21.896	53.899	55.400	88.591	1128.8	0.033362	99.604	0.61126	liquid
550.00	22.560	43.239	0.023127	21.374	21.895	53.888	55.397	88.525	1130.1	0.032645	99.671	0.61161	liquid
550.00	22.805	43.256	0.023118	21.367	21.895	53.876	55.393	88.460	1131.4	0.031932	99.739	0.61195	liquid
550.00	23.050	43.273	0.023109	21.361	21.894	53.865	55.390	88.395	1132.8	0.031224	99.806	0.61230	liquid
550.00	23.295	43.290	0.023100	21.355	21.893	53.853	55.387	88.330	1134.1	0.030520	99.874	0.61265	liquid
550.00	23.540	43.307	0.023091	21.349	21.893	53.842	55.383	88.266	1135.4	0.029821	99.941	0.61299	liquid
550.00	23.785	43.324	0.023082	21.343	21.892	53.830	55.380	88.202	1136.8	0.029126	100.01	0.61333	liquid
550.00	24.030	43.340	0.023073	21.337	21.891	53.819	55.377	88.139	1138.1	0.028436	100.07	0.61367	liquid
550.00	24.275	43.357	0.023064	21.331	21.891	53.807	55.374	88.076	1139.4	0.027750	100.14	0.61402	liquid
550.00	24.520	43.374	0.023055	21.325	21.890	53.796	55.371	88.014	1140.7	0.027068	100.21	0.61436	liquid
550.00	24.765	43.390	0.023047	21.319	21.890	53.785	55.368	87.951	1142.0	0.026390	100.27	0.61470	liquid
550.00	25.010	43.407	0.023038	21.313	21.889	53.773	55.365	87.890	1143.3	0.025717	100.34	0.61504	liquid
550.00	25.255	43.423	0.023029	21.307	21.889	53.762	55.362	87.828	1144.6	0.025048	100.41	0.61537	liquid
550.00	25.500	43.440	0.023020	21.301	21.888	53.751	55.358	87.768	1145.9	0.024383	100.47	0.61571	liquid
550.00	25.745	43.456	0.023012	21.295	21.887	53.740	55.355	87.707	1147.2	0.023722	100.54	0.61605	liquid
550.00	25.990	43.473	0.023003	21.289	21.887	53.729	55.352	87.647	1148.5	0.023065	100.60	0.61638	liquid
550.00	26.235	43.489	0.022994	21.283	21.886	53.717	55.349	87.587	1149.8	0.022412	100.67	0.61672	liquid
550.00	26.480	43.505	0.022986	21.277	21.886	53.706	55.346	87.528	1151.1	0.021763	100.74	0.61705	liquid
550.00	26.725	43.521	0.022977	21.271	21.886	53.695	55.343	87.469	1152.4	0.021118	100.80	0.61739	liquid
550.00	26.970	43.537	0.022969	21.266	21.885	53.684	55.341	87.410	1153.7	0.020477	100.87	0.61772	liquid
550.00	27.215	43.554	0.022960	21.260	21.885	53.673	55.338	87.352	1154.9	0.019840	100.93	0.61805	liquid
550.00	27.460	43.570	0.022952	21.254	21.884	53.662	55.335	87.294	1156.2	0.019206	101.00	0.61838	liquid
550.00	27.705	43.586	0.022943	21.248	21.884	53.651	55.332	87.236	1157.5	0.018576	101.06	0.61871	liquid
550.00	27.950	43.602	0.022935	21.242	21.883	53.640	55.329	87.179	1158.7	0.017950	101.13	0.61904	liquid
550.00	28.195	43.618	0.022927	21.237	21.883	53.629	55.326	87.122	1160.0	0.017328	101.19	0.61937	liquid
550.00	28.440	43.633	0.022918	21.231	21.883	53.619	55.323	87.065	1161.2	0.016709	101.25	0.61970	liquid
550.00	28.685	43.649	0.022910	21.225	21.882	53.608	55.320	87.009	1162.5	0.016094	101.32	0.62003	liquid
550.00	28.930	43.665	0.022902	21.219	21.882	53.597	55.318	86.953	1163.7	0.015483	101.38	0.62035	liquid
550.00	29.175	43.681	0.022893	21.214	21.882	53.586	55.315	86.898	1165.0	0.014875	101.45	0.62068	liquid
550.00	29.420	43.697	0.022885	21.208	21.881	53.575	55.312	86.842	1166.2	0.014270	101.51	0.62100	liquid
550.00	29.665	43.712	0.022877	21.202	21.881	53.565	55.309	86.787	1167.4	0.013669	101.58	0.62133	liquid
550.00	29.910	43.728	0.022869	21.197	21.881	53.554	55.307	86.733	1168.7	0.013072	101.64	0.62165	liquid
550.00	30.155	43.744	0.022861	21.191	21.881	53.543	55.304	86.678	1169.9	0.012478	101.70	0.62197	liquid
550.00	30.400	43.759	0.022852	21.186	21.880	53.533	55.301	86.624	1171.1	0.011887	101.77	0.62230	liquid
550.00	30.645	43.775	0.022844	21.180	21.880	53.522	55.299	86.571	1172.4	0.011299	101.83	0.62262	liquid
550.00	30.890	43.790	0.022836	21.174	21.880	53.511	55.296	86.517	1173.6	0.010715	101.89	0.62294	liquid
550.00	31.135	43.805	0.022828	21.169	21.880	53.501	55.293	86.464	1174.8	0.010135	101.96	0.62326	liquid
550.00	31.380	43.821	0.022820	21.163	21.879	53.490	55.291	86.412	1176.0	0.0095570	102.02	0.62358	liquid
550.00	31.625	43.836	0.022812	21.158	21.879	53.480	55.288	86.359	1177.2	0.0089827	102.08	0.62390	liquid
550.00	31.870	43.852	0.022804	21.152	21.879	53.469	55.285	86.307	1178.4	0.0084116	102.15	0.62422	liquid
550.00	32.115	43.867	0.022796	21.147	21.879	53.459	55.283	86.255	1179.6	0.0078436	102.21	0.62454	liquid
550.00	32.360	43.882	0.022788	21.141	21.879	53.448	55.280	86.203	1180.8	0.0072788	102.27	0.62485	liquid
550.00	32.605	43.897	0.022780	21.136	21.879	53.438	55.278	86.152	1182.0	0.0067170	102.33	0.62517	liquid
550.00	32.850	43.912	0.022773	21.130	21.878	53.428	55.275	86.101	1183.2	0.0061584	102.40	0.62548	liquid
550.00	33.095	43.927	0.022765	21.125	21.878	53.417	55.273	86.050	1184.4	0.0056028	102.46	0.62580	liquid
550.00	33.340	43.943	0.022757	21.119	21.878	53.407	55.270	86.000	1185.6	0.0050502	102.52	0.62611	liquid
550.00	33.585	43.958	0.022749	21.114	21.878	53.397	55.268	85.950	1186.8	0.0045007	102.58	0.62643	liquid
550.00	33.830	43.973	0.022741	21.109	21.878	53.386	55.265	85.900	1188.0	0.0039540	102.64	0.62674	liquid
550.00	34.075	43.988	0.022734	21.103	21.878	53.376	55.263	85.850	1189.1	0.0034104	102.71	0.62705	liquid
550.00	34.320	44.002	0.022726	21.098	21.878	53.366	55.260	85.801	1190.3	0.0028696	102.77	0.62737	liquid
550.00	34.565	44.017	0.022718	21.092	21.878	53.356	55.258	85.752	1191.5	0.0023318	102.83	0.62768	liquid
550.00	34.810	44.032	0.022711	21.087	21.878	53.345	55.255	85.703	1192.6	0.0017968	102.89	0.62799	liquid
550.00	35.055	44.047	0.022703	21.082	21.878	53.335	55.253	85.654	1193.8	0.0012646	102.95	0.62830	liquid
550.00	35.300	44.062	0.022695	21.077	21.878	53.325	55.251	85.606	1195.0	0.00073528	103.01	0.62861	liquid
550.00	35.545	44.077	0.022688	21.071	21.878	53.315	55.248	85.558	1196.1	0.00020873	103.08	0.62892	liquid
550.00	35.790	44.091	0.022680	21.066	21.878	53.305	55.246	85.510	1197.3	-0.00031506	103.14	0.62922	liquid
550.00	36.035	44.106	0.022673	21.061	21.878	53.295	55.243	85.462	1198.5	-0.00083610	103.20	0.62953	liquid
550.00	36.280	44.121	0.022665	21.055	21.878	53.285	55.241	85.415	1199.6	-0.0013544	103.26	0.62984	liquid
550.00	36.525	44.135	0.022658	21.050	21.878	53.275	55.239	85.368	1200.8	-0.0018700	103.32	0.63014	liquid
550.00	36.770	44.150	0.022650	21.045	21.878	53.265	55.236	85.321	1201.9	-0.0023830	103.38	0.63045	liquid
550.00	37.015	44.164	0.022643	21.040	21.878	53.255	55.234	85.275	1203.0	-0.0028933	103.44	0.63076	liquid
550.00	37.260	44.179	0.022635	21.034	21.878	53.245	55.232	85.228	1204.2	-0.0034010	103.50	0.63106	liquid
550.00	37.505	44.193	0.022628	21.029	21.878	53.235	55.229	85.182	1205.3	-0.0039061	103.56	0.63136	liquid
550.00	37.750	44.208	0.022621	21.024	21.878	53.225	55.227	85.136	1206.5	-0.0044086	103.62	0.63167	liquid
550.00	37.995	44.222	0.022613	21.019	21.878	53.215	55.225	85.091	1207.6	-0.0049085	103.68	0.63197	liquid
550.00	38.240	44.236	0.022606	21.014	21.878	53.205	55.223	85.045	1208.7	-0.0054059	103.74	0.63227	liquid
550.00	38.485	44.251	0.022599	21.009	21.878	53.195	55.220	85.000	1209.8	-0.0059008	103.80	0.63258	liquid
550.00	38.730	44.265	0.022591	21.004	21.878	53.185	55.218	84.955	1211.0	-0.0063931	103.86	0.63288	liquid
550.00	38.975	44.279	0.022584	20.998	21.879	53.175	55.216	84.910	1212.1	-0.0068830	103.92	0.63318	liquid
550.00	39.220	44.293	0.022577	20.993	21.879	53.166	55.214	84.866	1213.2	-0.0073705	103.98	0.63348	liquid
550.00	39.465	44.308	0.022570	20.988	21.879	53.156	55.212	84.822	1214.3	-0.0078555	104.04	0.63378	liquid
550.00	39.710	44.322	0.022562	20.983	21.879	53.146	55.209	84.778	1215.4	-0.0083381	104.10	0.63408	liquid
550.00	39.955	44.336	0.022555	20.978	21.879	53.136	55.207	84.734	1216.6	-0.0088183	104.16	0.63438	liquid
550.00	40.200	44.350	0.022548	20.973	21.879	53.127	55.205	84.690	1217.7	-0.0092961	104.22	0.63467	liquid
550.00	40.445	44.364	0.022541	20.968	21.880	53.117	55.203	84.647	1218.8	-0.0097715	104.28	0.63497	liquid
550.00	40.690	44.378	0.022534	20.963	21.880	53.107	55.201	84.604	1219.9	-0.010245	104.34	0.63527	liquid
550.00	40.935	44.392	0.022527	20.958	21.880	53.098	55.199	84.561	1221.0	-0.010715	104.40	0.63556	liquid
550.00	41.180	44.406	0.022520	20.953	21.880	53.088	55.196	84.518	1222.1	-0.011184	104.46	0.63586	liquid
550.00	41.425	44.420	0.022512	20.948	21.881	53.079	55.194	84.475	1223.2	-0.011650	104.52	0.63616	liquid
550.00	41.670	44.434	0.022505	20.943	21.881	53.069	55.192	84.433	1224.3	-0.012114	104.58	0.63645	liquid
550.00	41.915	44.448	0.022498	20.938	21.881	53.059	55.190	84.391	1225.3	-0.012576	104.63	0.63675	liquid
550.00	42.160	44.461	0.022491	20.933	21.881	53.050	55.188	84.349	1226.4	-0.013035	104.69	0.63704	liquid
550.00	42.405	44.475	0.022484	20.928	21.882	53.040	55.186	84.307	1227.5	-0.013493	104.75	0.63733	liquid
550.00	42.650	44.489	0.022477	20.923	21.882	53.031	55.184	84.265	1228.6	-0.013948	104.81	0.63763	liquid
550.00	42.895	44.503	0.022471	20.918	21.882	53.021	55.182	84.224	1229.7	-0.014401	104.87	0.63792	liquid
550.00	43.140	44.516	0.022464	20.913	21.882	53.012	55.180	84.183	1230.8	-0.014851	104.93	0.63821	liquid
550.00	43.385	44.530	0.022457	20.909	21.883	53.002	55.178	84.142	1231.8	-0.015300	104.99	0.63850	liquid
550.00	43.630	44.544	0.022450	20.904	21.883	52.993	55.176	84.101	1232.9	-0.015746	105.04	0.63879	liquid
550.00	43.875	44.557	0.022443	20.899	21.883	52.984	55.174	84.061	1234.0	-0.016191	105.10	0.63908	liquid
550.00	44.120	44.571	0.022436	20.894	21.884	52.974	55.172	84.020	1235.1	-0.016633	105.16	0.63937	liquid
550.00	44.365	44.585	0.022429	20.889	21.884	52.965	55.170	83.980	1236.1	-0.017073	105.22	0.63966	liquid
550.00	44.610	44.598	0.022422	20.884	21.884	52.956	55.168	83.940	1237.2	-0.017511	105.28	0.63995	liquid
550.00	44.855	44.612	0.022416	20.879	21.885	52.946	55.166	83.900	1238.3	-0.017947	105.33	0.64024	liquid
550.00	45.100	44.625	0.022409	20.875	21.885	52.937	55.164	83.860	1239.3	-0.018382	105.39	0.64053	liquid
550.00	45.345	44.639	0.022402	20.870	21.886	52.928	55.162	83.821	1240.4	-0.018814	105.45	0.64081	liquid
550.00	45.590	44.652	0.022395	20.865	21.886	52.918	55.160	83.782	1241.4	-0.019244	105.51	0.64110	liquid
550.00	45.835	44.665	0.022389	20.860	21.886	52.909	55.158	83.743	1242.5	-0.019672	105.56	0.64139	liquid
550.00	46.080	44.679	0.022382	20.855	21.887	52.900	55.156	83.704	1243.5	-0.020098	105.62	0.64167	liquid
550.00	46.325	44.692	0.022375	20.851	21.887	52.891	55.154	83.665	1244.6	-0.020522	105.68	0.64196	liquid
550.00	46.570	44.705	0.022369	20.846	21.888	52.882	55.152	83.626	1245.6	-0.020944	105.74	0.64225	liquid
550.00	46.815	44.719	0.022362	20.841	21.888	52.872	55.150	83.588	1246.7	-0.021364	105.79	0.64253	liquid
550.00	47.060	44.732	0.022355	20.836	21.889	52.863	55.148	83.550	1247.7	-0.021783	105.85	0.64281	liquid
550.00	47.305	44.745	0.022349	20.832	21.889	52.854	55.146	83.512	1248.7	-0.022199	105.91	0.64310	liquid
550.00	47.550	44.758	0.022342	20.827	21.889	52.845	55.145	83.474	1249.8	-0.022614	105.96	0.64338	liquid
550.00	47.795	44.771	0.022336	20.822	21.890	52.836	55.143	83.436	1250.8	-0.023026	106.02	0.64366	liquid
550.00	48.040	44.785	0.022329	20.818	21.890	52.827	55.141	83.398	1251.9	-0.023437	106.08	0.64395	liquid
550.00	48.285	44.798	0.022323	20.813	21.891	52.818	55.139	83.361	1252.9	-0.023846	106.13	0.64423	liquid
550.00	48.530	44.811	0.022316	20.808	21.891	52.809	55.137	83.324	1253.9	-0.024254	106.19	0.64451	liquid
550.00	48.775	44.824	0.022310	20.804	21.892	52.800	55.135	83.287	1254.9	-0.024659	106.25	0.64479	liquid
550.00	49.020	44.837	0.022303	20.799	21.892	52.791	55.133	83.250	1256.0	-0.025062	106.30	0.64507	liquid
550.00	49.265	44.850	0.022297	20.794	21.893	52.782	55.132	83.213	1257.0	-0.025464	106.36	0.64535	liquid
550.00	49.510	44.863	0.022290	20.790	21.893	52.773	55.130	83.176	1258.0	-0.025864	106.42	0.64563	liquid
550.00	49.755	44.876	0.022284	20.785	21.894	52.764	55.128	83.140	1259.0	-0.026263	106.47	0.64591	liquid
550.00	50.000	44.889	0.022277	20.781	21.894	52.755	55.126	83.104	1260.0	-0.026659	106.53	0.64619	liquid
